%YAML 1.1
%TAG !u! tag:unity3d.com,2011:
--- !u!74 &7400000
AnimationClip:
  m_ObjectHideFlags: 0
  m_PrefabParentObject: {fileID: 0}
  m_PrefabInternal: {fileID: 0}
  m_Name: blade_col3
  serializedVersion: 6
  m_Legacy: 1
  m_Compressed: 0
  m_UseHighQualityCurve: 1
  m_RotationCurves:
  - curve:
      serializedVersion: 2
      m_Curve:
      - time: 0
        value: {x: 0.70710677, y: -0, z: -0, w: -0.70710677}
        inSlope: {x: 0, y: 0, z: 0, w: 0}
        outSlope: {x: 0, y: 0, z: 0, w: 0}
        tangentMode: -559038737
      - time: 0.15
        value: {x: 0.70710677, y: -0, z: -0, w: -0.70710677}
        inSlope: {x: 0, y: 0, z: 0, w: 0}
        outSlope: {x: 0, y: 0, z: 0, w: 0}
        tangentMode: -559038737
      - time: 0.2
        value: {x: 0.7064229, y: -0.031090155, z: -0.031090155, w: -0.7064229}
        inSlope: {x: -0.09513617, y: -1.7796414, z: -1.7796414, w: 0.09513617}
        outSlope: {x: -0.09513617, y: -1.7796414, z: -1.7796414, w: 0.09513617}
        tangentMode: -559038737
      - time: 0.28333336
        value: {x: 0.63897926, y: -0.30282915, z: -0.30282915, w: -0.63897926}
        inSlope: {x: -1.9515325, y: -4.0804677, z: -4.0804677, w: 1.9515325}
        outSlope: {x: -1.9515325, y: -4.0804677, z: -4.0804677, w: 1.9515325}
        tangentMode: -559038737
      - time: 0.3333334
        value: {x: 0.49999976, y: -0.5000002, z: -0.5000002, w: -0.49999976}
        inSlope: {x: -3.5144238, y: -3.5144205, z: -3.5144205, w: 3.5144238}
        outSlope: {x: -3.5144238, y: -3.5144205, z: -3.5144205, w: 3.5144238}
        tangentMode: -559038737
      - time: 0.38333344
        value: {x: 0.30282858, y: -0.63897955, z: -0.63897955, w: -0.30282858}
        inSlope: {x: -4.080468, y: -1.9515271, z: -1.9515271, w: 4.080468}
        outSlope: {x: -4.080468, y: -1.9515271, z: -1.9515271, w: 4.080468}
        tangentMode: -559038737
      - time: 0.48333353
        value: {x: 0.008052541, y: -0.70706093, z: -0.70706093, w: -0.008052541}
        inSlope: {x: -0.93269604, y: -0.02051352, z: -0.02051352, w: 0.93269604}
        outSlope: {x: -0.93269604, y: -0.02051352, z: -0.02051352, w: 0.93269604}
        tangentMode: -559038737
      - time: 0.5333335
        value: {x: -0.00000003090862, y: -0.70710677, z: -0.70710677, w: 0.00000003090862}
        inSlope: {x: 0, y: 0, z: 0, w: 0}
        outSlope: {x: 0, y: 0, z: 0, w: 0}
        tangentMode: -559038737
      - time: 1.3166661
        value: {x: -0.00000003090862, y: -0.70710677, z: -0.70710677, w: 0.00000003090862}
        inSlope: {x: 0, y: 0, z: 0, w: 0}
        outSlope: {x: 0, y: 0, z: 0, w: 0}
        tangentMode: -559038737
      - time: 1.3333328
        value: {x: -0.00000003090862, y: -0.70710677, z: -0.70710677, w: 0.00000003090862}
        inSlope: {x: -0.9326392, y: 0.020511767, z: 0.020511767, w: 0.9326392}
        outSlope: {x: -0.9326392, y: 0.020511767, z: 0.020511767, w: 0.9326392}
        tangentMode: -559038737
      - time: 1.3499994
        value: {x: -0.031087974, y: -0.70642304, z: -0.70642304, w: 0.031087974}
        inSlope: {x: -3.4499397, y: 0.28241363, z: 0.28241363, w: 3.4499397}
        outSlope: {x: -3.4499397, y: 0.28241363, z: 0.28241363, w: 3.4499397}
        tangentMode: -559038737
      - time: 1.3833327
        value: {x: -0.23533392, y: -0.66679674, z: -0.66679674, w: 0.23533392}
        inSlope: {x: -7.690547, y: 2.878376, z: 2.878376, w: 7.690547}
        outSlope: {x: -7.690547, y: 2.878376, z: 2.878376, w: 7.690547}
        tangentMode: -559038737
      - time: 1.3999994
        value: {x: -0.37134922, y: -0.6017472, z: -0.6017472, w: 0.37134922}
        inSlope: {x: -7.939851, y: 5.0037694, z: 5.0037694, w: 7.939851}
        outSlope: {x: -7.939851, y: 5.0037694, z: 5.0037694, w: 7.939851}
        tangentMode: -559038737
      - time: 1.416666
        value: {x: -0.49999535, y: -0.5000046, z: -0.5000046, w: 0.49999535}
        inSlope: {x: -6.911746, y: 6.91162, z: 6.91162, w: 6.911746}
        outSlope: {x: -6.911746, y: 6.91162, z: 6.91162, w: 6.911746}
        tangentMode: -559038737
      - time: 1.4333327
        value: {x: -0.60174054, y: -0.3713601, z: -0.3713601, w: 0.60174054}
        inSlope: {x: -5.0039377, y: 7.9398155, z: 7.9398155, w: 5.0039377}
        outSlope: {x: -5.0039377, y: 7.9398155, z: 7.9398155, w: 5.0039377}
        tangentMode: -559038737
      - time: 1.4499993
        value: {x: -0.6667931, y: -0.23534434, z: -0.23534434, w: 0.6667931}
        inSlope: {x: -2.8785334, y: 7.6906185, z: 7.6906185, w: 2.8785334}
        outSlope: {x: -2.8785334, y: 7.6906185, z: 7.6906185, w: 2.8785334}
        tangentMode: -559038737
      - time: 1.4833326
        value: {x: -0.7064228, y: -0.031092934, z: -0.031092934, w: 0.7064228}
        inSlope: {x: -0.28245655, y: 3.4501867, z: 3.4501867, w: 0.28245655}
        outSlope: {x: -0.28245655, y: 3.4501867, z: 3.4501867, w: 0.28245655}
        tangentMode: -559038737
      - time: 1.4999993
        value: {x: -0.70710677, y: -0.00000027535754, z: -0.00000027535754, w: 0.70710677}
        inSlope: {x: -0.02051892, y: 0.93279076, z: 0.93279076, w: 0.02051892}
        outSlope: {x: -0.02051892, y: 0.93279076, z: 0.93279076, w: 0.02051892}
        tangentMode: -559038737
      - time: 1.5166659
        value: {x: -0.70710677, y: 0.00000006181724, z: 0.00000006181724, w: 0.70710677}
        inSlope: {x: 0, y: 0.000010115253, z: 0.000010115253, w: 0}
        outSlope: {x: 0, y: 0.000010115253, z: 0.000010115253, w: 0}
        tangentMode: -559038737
      - time: 1.8333334
        value: {x: -0.70710677, y: 0.00000006181724, z: 0.00000006181724, w: 0.70710677}
        inSlope: {x: 0, y: 0, z: 0, w: 0}
        outSlope: {x: 0, y: 0, z: 0, w: 0}
        tangentMode: -559038737
      m_PreInfinity: 2
      m_PostInfinity: 2
      m_RotationOrder: 4
    path: 
  m_CompressedRotationCurves: []
  m_EulerCurves: []
  m_PositionCurves: []
  m_ScaleCurves: []
  m_FloatCurves: []
  m_PPtrCurves: []
  m_SampleRate: 60
  m_WrapMode: 0
  m_Bounds:
    m_Center: {x: 0, y: 0, z: 0}
    m_Extent: {x: 0, y: 0, z: 0}
  m_ClipBindingConstant:
    genericBindings: []
    pptrCurveMapping: []
  m_AnimationClipSettings:
    serializedVersion: 2
    m_AdditiveReferencePoseClip: {fileID: 0}
    m_AdditiveReferencePoseTime: 0
    m_StartTime: 0
    m_StopTime: 1
    m_OrientationOffsetY: 0
    m_Level: 0
    m_CycleOffset: 0
    m_HasAdditiveReferencePose: 0
    m_LoopTime: 0
    m_LoopBlend: 0
    m_LoopBlendOrientation: 0
    m_LoopBlendPositionY: 0
    m_LoopBlendPositionXZ: 0
    m_KeepOriginalOrientation: 0
    m_KeepOriginalPositionY: 1
    m_KeepOriginalPositionXZ: 0
    m_HeightFromFeet: 0
    m_Mirror: 0
  m_EditorCurves:
  - curve:
      serializedVersion: 2
      m_Curve:
      - time: 0
        value: 0.70710677
        inSlope: 0
        outSlope: 0
        tangentMode: 0
      - time: 0.15
        value: 0.70710677
        inSlope: 0
        outSlope: 0
        tangentMode: 0
      - time: 0.2
        value: 0.7064229
        inSlope: -0.09513617
        outSlope: -0.09513617
        tangentMode: 0
      - time: 0.28333336
        value: 0.63897926
        inSlope: -1.9515325
        outSlope: -1.9515325
        tangentMode: 0
      - time: 0.3333334
        value: 0.49999976
        inSlope: -3.5144238
        outSlope: -3.5144238
        tangentMode: 0
      - time: 0.38333344
        value: 0.30282858
        inSlope: -4.080468
        outSlope: -4.080468
        tangentMode: 0
      - time: 0.48333353
        value: 0.008052541
        inSlope: -0.93269604
        outSlope: -0.93269604
        tangentMode: 0
      - time: 0.5333335
        value: -0.00000003090862
        inSlope: 0
        outSlope: 0
        tangentMode: 0
      - time: 1.3166661
        value: -0.00000003090862
        inSlope: 0
        outSlope: 0
        tangentMode: 0
      - time: 1.3333328
        value: -0.00000003090862
        inSlope: -0.9326392
        outSlope: -0.9326392
        tangentMode: 0
      - time: 1.3499994
        value: -0.031087974
        inSlope: -3.4499397
        outSlope: -3.4499397
        tangentMode: 0
      - time: 1.3833327
        value: -0.23533392
        inSlope: -7.690547
        outSlope: -7.690547
        tangentMode: 0
      - time: 1.3999994
        value: -0.37134922
        inSlope: -7.939851
        outSlope: -7.939851
        tangentMode: 0
      - time: 1.416666
        value: -0.49999535
        inSlope: -6.911746
        outSlope: -6.911746
        tangentMode: 0
      - time: 1.4333327
        value: -0.60174054
        inSlope: -5.0039377
        outSlope: -5.0039377
        tangentMode: 0
      - time: 1.4499993
        value: -0.6667931
        inSlope: -2.8785334
        outSlope: -2.8785334
        tangentMode: 0
      - time: 1.4833326
        value: -0.7064228
        inSlope: -0.28245655
        outSlope: -0.28245655
        tangentMode: 0
      - time: 1.4999993
        value: -0.70710677
        inSlope: -0.02051892
        outSlope: -0.02051892
        tangentMode: 0
      - time: 1.5166659
        value: -0.70710677
        inSlope: 0
        outSlope: 0
        tangentMode: 0
      - time: 1.8333334
        value: -0.70710677
        inSlope: 0
        outSlope: 0
        tangentMode: 0
      m_PreInfinity: 2
      m_PostInfinity: 2
      m_RotationOrder: 4
    attribute: m_LocalRotation.x
    path: 
    classID: 4
    script: {fileID: 0}
  - curve:
      serializedVersion: 2
      m_Curve:
      - time: 0
        value: -0
        inSlope: 0
        outSlope: 0
        tangentMode: 0
      - time: 0.15
        value: -0
        inSlope: 0
        outSlope: 0
        tangentMode: 0
      - time: 0.2
        value: -0.031090155
        inSlope: -1.7796414
        outSlope: -1.7796414
        tangentMode: 0
      - time: 0.28333336
        value: -0.30282915
        inSlope: -4.0804677
        outSlope: -4.0804677
        tangentMode: 0
      - time: 0.3333334
        value: -0.5000002
        inSlope: -3.5144205
        outSlope: -3.5144205
        tangentMode: 0
      - time: 0.38333344
        value: -0.63897955
        inSlope: -1.9515271
        outSlope: -1.9515271
        tangentMode: 0
      - time: 0.48333353
        value: -0.70706093
        inSlope: -0.02051352
        outSlope: -0.02051352
        tangentMode: 0
      - time: 0.5333335
        value: -0.70710677
        inSlope: 0
        outSlope: 0
        tangentMode: 0
      - time: 1.3166661
        value: -0.70710677
        inSlope: 0
        outSlope: 0
        tangentMode: 0
      - time: 1.3333328
        value: -0.70710677
        inSlope: 0.020511767
        outSlope: 0.020511767
        tangentMode: 0
      - time: 1.3499994
        value: -0.70642304
        inSlope: 0.28241363
        outSlope: 0.28241363
        tangentMode: 0
      - time: 1.3833327
        value: -0.66679674
        inSlope: 2.878376
        outSlope: 2.878376
        tangentMode: 0
      - time: 1.3999994
        value: -0.6017472
        inSlope: 5.0037694
        outSlope: 5.0037694
        tangentMode: 0
      - time: 1.416666
        value: -0.5000046
        inSlope: 6.91162
        outSlope: 6.91162
        tangentMode: 0
      - time: 1.4333327
        value: -0.3713601
        inSlope: 7.9398155
        outSlope: 7.9398155
        tangentMode: 0
      - time: 1.4499993
        value: -0.23534434
        inSlope: 7.6906185
        outSlope: 7.6906185
        tangentMode: 0
      - time: 1.4833326
        value: -0.031092934
        inSlope: 3.4501867
        outSlope: 3.4501867
        tangentMode: 0
      - time: 1.4999993
        value: -0.00000027535754
        inSlope: 0.93279076
        outSlope: 0.93279076
        tangentMode: 0
      - time: 1.5166659
        value: 0.00000006181724
        inSlope: 0.000010115253
        outSlope: 0.000010115253
        tangentMode: 0
      - time: 1.8333334
        value: 0.00000006181724
        inSlope: 0
        outSlope: 0
        tangentMode: 0
      m_PreInfinity: 2
      m_PostInfinity: 2
      m_RotationOrder: 4
    attribute: m_LocalRotation.y
    path: 
    classID: 4
    script: {fileID: 0}
  - curve:
      serializedVersion: 2
      m_Curve:
      - time: 0
        value: -0
        inSlope: 0
        outSlope: 0
        tangentMode: 0
      - time: 0.15
        value: -0
        inSlope: 0
        outSlope: 0
        tangentMode: 0
      - time: 0.2
        value: -0.031090155
        inSlope: -1.7796414
        outSlope: -1.7796414
        tangentMode: 0
      - time: 0.28333336
        value: -0.30282915
        inSlope: -4.0804677
        outSlope: -4.0804677
        tangentMode: 0
      - time: 0.3333334
        value: -0.5000002
        inSlope: -3.5144205
        outSlope: -3.5144205
        tangentMode: 0
      - time: 0.38333344
        value: -0.63897955
        inSlope: -1.9515271
        outSlope: -1.9515271
        tangentMode: 0
      - time: 0.48333353
        value: -0.70706093
        inSlope: -0.02051352
        outSlope: -0.02051352
        tangentMode: 0
      - time: 0.5333335
        value: -0.70710677
        inSlope: 0
        outSlope: 0
        tangentMode: 0
      - time: 1.3166661
        value: -0.70710677
        inSlope: 0
        outSlope: 0
        tangentMode: 0
      - time: 1.3333328
        value: -0.70710677
        inSlope: 0.020511767
        outSlope: 0.020511767
        tangentMode: 0
      - time: 1.3499994
        value: -0.70642304
        inSlope: 0.28241363
        outSlope: 0.28241363
        tangentMode: 0
      - time: 1.3833327
        value: -0.66679674
        inSlope: 2.878376
        outSlope: 2.878376
        tangentMode: 0
      - time: 1.3999994
        value: -0.6017472
        inSlope: 5.0037694
        outSlope: 5.0037694
        tangentMode: 0
      - time: 1.416666
        value: -0.5000046
        inSlope: 6.91162
        outSlope: 6.91162
        tangentMode: 0
      - time: 1.4333327
        value: -0.3713601
        inSlope: 7.9398155
        outSlope: 7.9398155
        tangentMode: 0
      - time: 1.4499993
        value: -0.23534434
        inSlope: 7.6906185
        outSlope: 7.6906185
        tangentMode: 0
      - time: 1.4833326
        value: -0.031092934
        inSlope: 3.4501867
        outSlope: 3.4501867
        tangentMode: 0
      - time: 1.4999993
        value: -0.00000027535754
        inSlope: 0.93279076
        outSlope: 0.93279076
        tangentMode: 0
      - time: 1.5166659
        value: 0.00000006181724
        inSlope: 0.000010115253
        outSlope: 0.000010115253
        tangentMode: 0
      - time: 1.8333334
        value: 0.00000006181724
        inSlope: 0
        outSlope: 0
        tangentMode: 0
      m_PreInfinity: 2
      m_PostInfinity: 2
      m_RotationOrder: 4
    attribute: m_LocalRotation.z
    path: 
    classID: 4
    script: {fileID: 0}
  - curve:
      serializedVersion: 2
      m_Curve:
      - time: 0
        value: -0.70710677
        inSlope: 0
        outSlope: 0
        tangentMode: 0
      - time: 0.15
        value: -0.70710677
        inSlope: 0
        outSlope: 0
        tangentMode: 0
      - time: 0.2
        value: -0.7064229
        inSlope: 0.09513617
        outSlope: 0.09513617
        tangentMode: 0
      - time: 0.28333336
        value: -0.63897926
        inSlope: 1.9515325
        outSlope: 1.9515325
        tangentMode: 0
      - time: 0.3333334
        value: -0.49999976
        inSlope: 3.5144238
        outSlope: 3.5144238
        tangentMode: 0
      - time: 0.38333344
        value: -0.30282858
        inSlope: 4.080468
        outSlope: 4.080468
        tangentMode: 0
      - time: 0.48333353
        value: -0.008052541
        inSlope: 0.93269604
        outSlope: 0.93269604
        tangentMode: 0
      - time: 0.5333335
        value: 0.00000003090862
        inSlope: 0
        outSlope: 0
        tangentMode: 0
      - time: 1.3166661
        value: 0.00000003090862
        inSlope: 0
        outSlope: 0
        tangentMode: 0
      - time: 1.3333328
        value: 0.00000003090862
        inSlope: 0.9326392
        outSlope: 0.9326392
        tangentMode: 0
      - time: 1.3499994
        value: 0.031087974
        inSlope: 3.4499397
        outSlope: 3.4499397
        tangentMode: 0
      - time: 1.3833327
        value: 0.23533392
        inSlope: 7.690547
        outSlope: 7.690547
        tangentMode: 0
      - time: 1.3999994
        value: 0.37134922
        inSlope: 7.939851
        outSlope: 7.939851
        tangentMode: 0
      - time: 1.416666
        value: 0.49999535
        inSlope: 6.911746
        outSlope: 6.911746
        tangentMode: 0
      - time: 1.4333327
        value: 0.60174054
        inSlope: 5.0039377
        outSlope: 5.0039377
        tangentMode: 0
      - time: 1.4499993
        value: 0.6667931
        inSlope: 2.8785334
        outSlope: 2.8785334
        tangentMode: 0
      - time: 1.4833326
        value: 0.7064228
        inSlope: 0.28245655
        outSlope: 0.28245655
        tangentMode: 0
      - time: 1.4999993
        value: 0.70710677
        inSlope: 0.02051892
        outSlope: 0.02051892
        tangentMode: 0
      - time: 1.5166659
        value: 0.70710677
        inSlope: 0
        outSlope: 0
        tangentMode: 0
      - time: 1.8333334
        value: 0.70710677
        inSlope: 0
        outSlope: 0
        tangentMode: 0
      m_PreInfinity: 2
      m_PostInfinity: 2
      m_RotationOrder: 4
    attribute: m_LocalRotation.w
    path: 
    classID: 4
    script: {fileID: 0}
  m_EulerEditorCurves:
  - curve:
      serializedVersion: 2
      m_Curve:
      - time: 0
        value: -90
        inSlope: 0
        outSlope: 0
        tangentMode: 10
      - time: 0.16666667
        value: -90
        inSlope: 0
        outSlope: 0
        tangentMode: 10
      - time: 1.3333334
        value: -90
        inSlope: 0
        outSlope: 0
        tangentMode: 10
      - time: 1.8333334
        value: -90
        inSlope: 0
        outSlope: 0
        tangentMode: 10
      m_PreInfinity: 2
      m_PostInfinity: 2
      m_RotationOrder: 4
    attribute: localEulerAnglesBaked.x
    path: 
    classID: 4
    script: {fileID: 0}
  - curve:
      serializedVersion: 2
      m_Curve:
      - time: 0
        value: 0
        inSlope: 0
        outSlope: 0
        tangentMode: 0
      - time: 0.16666667
        value: 0
        inSlope: 0
        outSlope: 0
        tangentMode: 0
      - time: 1.3333334
        value: 0
        inSlope: 0
        outSlope: 0
        tangentMode: 0
      - time: 1.8333334
        value: 0
        inSlope: 0
        outSlope: 0
        tangentMode: 0
      m_PreInfinity: 2
      m_PostInfinity: 2
      m_RotationOrder: 4
    attribute: localEulerAnglesBaked.y
    path: 
    classID: 4
    script: {fileID: 0}
  - curve:
      serializedVersion: 2
      m_Curve:
      - time: 0
        value: 0
        inSlope: 0
        outSlope: 0
        tangentMode: 0
      - time: 0.16666667
        value: 0
        inSlope: 0
        outSlope: 0
        tangentMode: 0
      - time: 0.5
        value: 180
        inSlope: 0
        outSlope: 0
        tangentMode: 0
      - time: 1.3333334
        value: 180
        inSlope: 0
        outSlope: 0
        tangentMode: 0
      - time: 1.5
        value: 360
        inSlope: 0
        outSlope: 0
        tangentMode: 0
      - time: 1.8333334
        value: 360
        inSlope: 0
        outSlope: 0
        tangentMode: 0
      m_PreInfinity: 2
      m_PostInfinity: 2
      m_RotationOrder: 4
    attribute: localEulerAnglesBaked.z
    path: 
    classID: 4
    script: {fileID: 0}
  m_HasGenericRootTransform: 0
  m_HasMotionFloatCurves: 0
  m_GenerateMotionCurves: 0
  m_Events: []
